Trabajo Personal
…
## The following objects are masked from 'package:base':
## 
##     date, intersect, setdiff, union

vuelos <- nycflights13::flights

# EJ 1: vuelos que llegaron mas de 1 hora tarde

any(is.na(vuelos$arr_delay))

## [1] TRUE

filter(vuelos, arr_delay>60|is.na(vuelos))

## # A tibble: 27,789 x 19
##     year month   day dep_time sched_dep_time dep_delay arr_time sched_arr_time
##    <int> <int> <int>    <int>          <int>     <dbl>    <int>          <int>
##  1  2013     1     1      811            630       101     1047            830
##  2  2013     1     1      848           1835       853     1001           1950
##  3  2013     1     1      957            733       144     1056            853
##  4  2013     1     1     1114            900       134     1447           1222
##  5  2013     1     1     1120            944        96     1331           1213
##  6  2013     1     1     1255           1200        55     1451           1330
##  7  2013     1     1     1301           1150        71     1518           1345
##  8  2013     1     1     1337           1220        77     1649           1531
##  9  2013     1     1     1342           1320        22     1617           1504
## 10  2013     1     1     1400           1250        70     1645           1502
## # ... with 27,779 more rows, and 11 more variables: arr_delay <dbl>,
## #   carrier <chr>, flight <int>, tailnum <chr>, origin <chr>, dest <chr>,
## #   air_time <dbl>, distance <dbl>, hour <dbl>, minute <dbl>, time_hour <dttm>

# EJ 2: vuelos a SFO o OAK

any(is.na(vuelos$dest))

## [1] FALSE

filter(vuelos, dest == "SFO"| dest == "OAK")

## # A tibble: 13,643 x 19
##     year month   day dep_time sched_dep_time dep_delay arr_time sched_arr_time
##    <int> <int> <int>    <int>          <int>     <dbl>    <int>          <int>
##  1  2013     1     1      558            600        -2      923            937
##  2  2013     1     1      611            600        11      945            931
##  3  2013     1     1      655            700        -5     1037           1045
##  4  2013     1     1      729            730        -1     1049           1115
##  5  2013     1     1      734            737        -3     1047           1113
##  6  2013     1     1      745            745         0     1135           1125
##  7  2013     1     1      746            746         0     1119           1129
##  8  2013     1     1      803            800         3     1132           1144
##  9  2013     1     1      826            817         9     1145           1158
## 10  2013     1     1     1029           1030        -1     1427           1355
## # ... with 13,633 more rows, and 11 more variables: arr_delay <dbl>,
## #   carrier <chr>, flight <int>, tailnum <chr>, origin <chr>, dest <chr>,
## #   air_time <dbl>, distance <dbl>, hour <dbl>, minute <dbl>, time_hour <dttm>

# EJ 3: vuelos operados por United American o por American Airlines

filter(vuelos, carrier == "UA" |carrier == "AA")

## # A tibble: 91,394 x 19
##     year month   day dep_time sched_dep_time dep_delay arr_time sched_arr_time
##    <int> <int> <int>    <int>          <int>     <dbl>    <int>          <int>
##  1  2013     1     1      517            515         2      830            819
##  2  2013     1     1      533            529         4      850            830
##  3  2013     1     1      542            540         2      923            850
##  4  2013     1     1      554            558        -4      740            728
##  5  2013     1     1      558            600        -2      753            745
##  6  2013     1     1      558            600        -2      924            917
##  7  2013     1     1      558            600        -2      923            937
##  8  2013     1     1      559            600        -1      941            910
##  9  2013     1     1      559            600        -1      854            902
## 10  2013     1     1      606            610        -4      858            910
## # ... with 91,384 more rows, and 11 more variables: arr_delay <dbl>,
## #   carrier <chr>, flight <int>, tailnum <chr>, origin <chr>, dest <chr>,
## #   air_time <dbl>, distance <dbl>, hour <dbl>, minute <dbl>, time_hour <dttm>

# EJ 4: vuelos que salieron los meses de primavera (abril, mayo, junio)

any(is.na(vuelos$month))

## [1] FALSE

filter(vuelos, month==4|month==5|month==6)

## # A tibble: 85,369 x 19
##     year month   day dep_time sched_dep_time dep_delay arr_time sched_arr_time
##    <int> <int> <int>    <int>          <int>     <dbl>    <int>          <int>
##  1  2013     4     1      454            500        -6      636            640
##  2  2013     4     1      509            515        -6      743            814
##  3  2013     4     1      526            530        -4      812            827
##  4  2013     4     1      534            540        -6      833            850
##  5  2013     4     1      542            545        -3      914            920
##  6  2013     4     1      543            545        -2      921            927
##  7  2013     4     1      551            600        -9      748            659
##  8  2013     4     1      552            600        -8      641            701
##  9  2013     4     1      553            600        -7      725            735
## 10  2013     4     1      554            600        -6      752            805
## # ... with 85,359 more rows, and 11 more variables: arr_delay <dbl>,
## #   carrier <chr>, flight <int>, tailnum <chr>, origin <chr>, dest <chr>,
## #   air_time <dbl>, distance <dbl>, hour <dbl>, minute <dbl>, time_hour <dttm>

# EJ 5: vuelos que llegaron mas de 1 hora tarde pero salieron con menos de 1 hora de retraso 

filter(vuelos, arr_delay>60&dep_delay<60|is.na(vuelos))

## # A tibble: 4,956 x 19
##     year month   day dep_time sched_dep_time dep_delay arr_time sched_arr_time
##    <int> <int> <int>    <int>          <int>     <dbl>    <int>          <int>
##  1  2013     1     1     1255           1200        55     1451           1330
##  2  2013     1     1     1342           1320        22     1617           1504
##  3  2013     1     1     1402           1323        39     1650           1526
##  4  2013     1     1     1411           1315        56     1717           1611
##  5  2013     1     1     1424           1349        35     1701           1556
##  6  2013     1     1     1428           1329        59     1803           1640
##  7  2013     1     1     1558           1534        24     1808           1703
##  8  2013     1     1     1604           1510        54     1817           1710
##  9  2013     1     1     1608           1535        33     2002           1850
## 10  2013     1     1     1630           1548        42     1902           1755
## # ... with 4,946 more rows, and 11 more variables: arr_delay <dbl>,
## #   carrier <chr>, flight <int>, tailnum <chr>, origin <chr>, dest <chr>,
## #   air_time <dbl>, distance <dbl>, hour <dbl>, minute <dbl>, time_hour <dttm>

# EJ 6: vuelos que salieron con mas de 1 hora de retraso pero consiguieron llegar con menos de 30 minutos de retraso (el avin aceler en el aire)

filter(vuelos, arr_delay>60&dep_delay<60)

## # A tibble: 4,956 x 19
##     year month   day dep_time sched_dep_time dep_delay arr_time sched_arr_time
##    <int> <int> <int>    <int>          <int>     <dbl>    <int>          <int>
##  1  2013     1     1     1255           1200        55     1451           1330
##  2  2013     1     1     1342           1320        22     1617           1504
##  3  2013     1     1     1402           1323        39     1650           1526
##  4  2013     1     1     1411           1315        56     1717           1611
##  5  2013     1     1     1424           1349        35     1701           1556
##  6  2013     1     1     1428           1329        59     1803           1640
##  7  2013     1     1     1558           1534        24     1808           1703
##  8  2013     1     1     1604           1510        54     1817           1710
##  9  2013     1     1     1608           1535        33     2002           1850
## 10  2013     1     1     1630           1548        42     1902           1755
## # ... with 4,946 more rows, and 11 more variables: arr_delay <dbl>,
## #   carrier <chr>, flight <int>, tailnum <chr>, origin <chr>, dest <chr>,
## #   air_time <dbl>, distance <dbl>, hour <dbl>, minute <dbl>, time_hour <dttm>

# EJ 7: Encuentra todos los vuelos que salen entre medianoche y las 7 de la maana (vuelos nocturnos)

filter(vuelos, hour<=7)

## # A tibble: 50,726 x 19
##     year month   day dep_time sched_dep_time dep_delay arr_time sched_arr_time
##    <int> <int> <int>    <int>          <int>     <dbl>    <int>          <int>
##  1  2013     1     1      517            515         2      830            819
##  2  2013     1     1      533            529         4      850            830
##  3  2013     1     1      542            540         2      923            850
##  4  2013     1     1      544            545        -1     1004           1022
##  5  2013     1     1      554            600        -6      812            837
##  6  2013     1     1      554            558        -4      740            728
##  7  2013     1     1      555            600        -5      913            854
##  8  2013     1     1      557            600        -3      709            723
##  9  2013     1     1      557            600        -3      838            846
## 10  2013     1     1      558            600        -2      753            745
## # ... with 50,716 more rows, and 11 more variables: arr_delay <dbl>,
## #   carrier <chr>, flight <int>, tailnum <chr>, origin <chr>, dest <chr>,
## #   air_time <dbl>, distance <dbl>, hour <dbl>, minute <dbl>, time_hour <dttm>

# EJ 8: Cuntos vuelos tienen un valor desconocido de dep_time?

filter(vuelos, is.na(dep_time))

## # A tibble: 8,255 x 19
##     year month   day dep_time sched_dep_time dep_delay arr_time sched_arr_time
##    <int> <int> <int>    <int>          <int>     <dbl>    <int>          <int>
##  1  2013     1     1       NA           1630        NA       NA           1815
##  2  2013     1     1       NA           1935        NA       NA           2240
##  3  2013     1     1       NA           1500        NA       NA           1825
##  4  2013     1     1       NA            600        NA       NA            901
##  5  2013     1     2       NA           1540        NA       NA           1747
##  6  2013     1     2       NA           1620        NA       NA           1746
##  7  2013     1     2       NA           1355        NA       NA           1459
##  8  2013     1     2       NA           1420        NA       NA           1644
##  9  2013     1     2       NA           1321        NA       NA           1536
## 10  2013     1     2       NA           1545        NA       NA           1910
## # ... with 8,245 more rows, and 11 more variables: arr_delay <dbl>,
## #   carrier <chr>, flight <int>, tailnum <chr>, origin <chr>, dest <chr>,
## #   air_time <dbl>, distance <dbl>, hour <dbl>, minute <dbl>, time_hour <dttm>
…
##           year          month            day       dep_time sched_dep_time 
##              0              0              0           8255              0 
##      dep_delay       arr_time sched_arr_time      arr_delay        carrier 
##           8255           8713              0           9430              0 
##         flight        tailnum         origin           dest       air_time 
##              0           2512              0              0           9430 
##       distance           hour         minute      time_hour 
##              0              0              0              0

   ## Las variables dep_time, dep_delay, arr_time, arr_delay, tail_num y air_time tienen valores desconocidos.

# EJ 10: Ordena los vuelos de flights para encontrar los vuelos ms retrasados en la salida. 
arrange(vuelos, desc(dep_delay))

## # A tibble: 336,776 x 19
##     year month   day dep_time sched_dep_time dep_delay arr_time sched_arr_time
##    <int> <int> <int>    <int>          <int>     <dbl>    <int>          <int>
##  1  2013     1     9      641            900      1301     1242           1530
##  2  2013     6    15     1432           1935      1137     1607           2120
##  3  2013     1    10     1121           1635      1126     1239           1810
##  4  2013     9    20     1139           1845      1014     1457           2210
##  5  2013     7    22      845           1600      1005     1044           1815
##  6  2013     4    10     1100           1900       960     1342           2211
##  7  2013     3    17     2321            810       911      135           1020
##  8  2013     6    27      959           1900       899     1236           2226
##  9  2013     7    22     2257            759       898      121           1026
## 10  2013    12     5      756           1700       896     1058           2020
## # ... with 336,766 more rows, and 11 more variables: arr_delay <dbl>,
## #   carrier <chr>, flight <int>, tailnum <chr>, origin <chr>, dest <chr>,
## #   air_time <dbl>, distance <dbl>, hour <dbl>, minute <dbl>, time_hour <dttm>

## Que vuelos fueron los que salieron los primeros antes de lo previsto?
  
arrange(vuelos, dep_delay)

## # A tibble: 336,776 x 19
##     year month   day dep_time sched_dep_time dep_delay arr_time sched_arr_time
##    <int> <int> <int>    <int>          <int>     <dbl>    <int>          <int>
##  1  2013    12     7     2040           2123       -43       40           2352
##  2  2013     2     3     2022           2055       -33     2240           2338
##  3  2013    11    10     1408           1440       -32     1549           1559
##  4  2013     1    11     1900           1930       -30     2233           2243
##  5  2013     1    29     1703           1730       -27     1947           1957
##  6  2013     8     9      729            755       -26     1002            955
##  7  2013    10    23     1907           1932       -25     2143           2143
##  8  2013     3    30     2030           2055       -25     2213           2250
##  9  2013     3     2     1431           1455       -24     1601           1631
## 10  2013     5     5      934            958       -24     1225           1309
## # ... with 336,766 more rows, and 11 more variables: arr_delay <dbl>,
## #   carrier <chr>, flight <int>, tailnum <chr>, origin <chr>, dest <chr>,
## #   air_time <dbl>, distance <dbl>, hour <dbl>, minute <dbl>, time_hour <dttm>

# EJ 11: Ordena los vuelos de flights para encontrar los vuelos mas rapidos. Usa el concepto de rapidez que consideres.

vuelos$tiempototal<-(vuelos$arr_delay+vuelos$dep_delay)
arrange(vuelos, tiempototal)

## # A tibble: 336,776 x 20
##     year month   day dep_time sched_dep_time dep_delay arr_time sched_arr_time
##    <int> <int> <int>    <int>          <int>     <dbl>    <int>          <int>
##  1  2013     5     7     1715           1729       -14     1944           2110
##  2  2013     5    20      719            735       -16      951           1110
##  3  2013     2     3     2022           2055       -33     2240           2338
##  4  2013     5     3      616            630       -14      803            913
##  5  2013     5     1     1550           1610       -20     1704           1807
##  6  2013     5     4      715            730       -15      958           1105
##  7  2013     9    28     1818           1835       -17     2053           2158
##  8  2013     5     6     1846           1859       -13     2026           2134
##  9  2013    11    13      750            803       -13      925           1032
## 10  2013     7    14     2041           2059       -18     2205           2307
## # ... with 336,766 more rows, and 12 more variables: arr_delay <dbl>,
## #   carrier <chr>, flight <int>, tailnum <chr>, origin <chr>, dest <chr>,
## #   air_time <dbl>, distance <dbl>, hour <dbl>, minute <dbl>, time_hour <dttm>,
## #   tiempototal <dbl>

# EJ 12: Que vuelos tienen los trayectos mas largos?

arrange(vuelos, desc(distance))

## # A tibble: 336,776 x 20
##     year month   day dep_time sched_dep_time dep_delay arr_time sched_arr_time
##    <int> <int> <int>    <int>          <int>     <dbl>    <int>          <int>
##  1  2013     1     1      857            900        -3     1516           1530
##  2  2013     1     2      909            900         9     1525           1530
##  3  2013     1     3      914            900        14     1504           1530
##  4  2013     1     4      900            900         0     1516           1530
##  5  2013     1     5      858            900        -2     1519           1530
##  6  2013     1     6     1019            900        79     1558           1530
##  7  2013     1     7     1042            900       102     1620           1530
##  8  2013     1     8      901            900         1     1504           1530
##  9  2013     1     9      641            900      1301     1242           1530
## 10  2013     1    10      859            900        -1     1449           1530
## # ... with 336,766 more rows, and 12 more variables: arr_delay <dbl>,
## #   carrier <chr>, flight <int>, tailnum <chr>, origin <chr>, dest <chr>,
## #   air_time <dbl>, distance <dbl>, hour <dbl>, minute <dbl>, time_hour <dttm>,
## #   tiempototal <dbl>

# EJ 13: Qu vuelos tienen los trayectos ms cortos?

arrange(vuelos,distance)

## # A tibble: 336,776 x 20
##     year month   day dep_time sched_dep_time dep_delay arr_time sched_arr_time
##    <int> <int> <int>    <int>          <int>     <dbl>    <int>          <int>
##  1  2013     7    27       NA            106        NA       NA            245
##  2  2013     1     3     2127           2129        -2     2222           2224
##  3  2013     1     4     1240           1200        40     1333           1306
##  4  2013     1     4     1829           1615       134     1937           1721
##  5  2013     1     4     2128           2129        -1     2218           2224
##  6  2013     1     5     1155           1200        -5     1241           1306
##  7  2013     1     6     2125           2129        -4     2224           2224
##  8  2013     1     7     2124           2129        -5     2212           2224
##  9  2013     1     8     2127           2130        -3     2304           2225
## 10  2013     1     9     2126           2129        -3     2217           2224
## # ... with 336,766 more rows, and 12 more variables: arr_delay <dbl>,
## #   carrier <chr>, flight <int>, tailnum <chr>, origin <chr>, dest <chr>,
## #   air_time <dbl>, distance <dbl>, hour <dbl>, minute <dbl>, time_hour <dttm>,
## #   tiempototal <dbl>
…
flights %>%
  filter(arr_delay > 0) %>%
  group_by(dest, origin, carrier, flight) %>%
  summarise(arr_delay = sum(arr_delay)) %>%
  group_by(dest) %>%
  mutate(
    arr_delay_prop = arr_delay / sum(arr_delay)
  ) %>%
  arrange(dest, desc(arr_delay_prop)) %>%
  select(carrier, flight, origin, dest, arr_delay_prop) 

## `summarise()` has grouped output by 'dest', 'origin', 'carrier'. You can override using the `.groups` argument.

## # A tibble: 8,834 x 5
## # Groups:   dest [103]
##    carrier flight origin dest  arr_delay_prop
##    <chr>    <int> <chr>  <chr>          <dbl>
##  1 B6        1505 JFK    ABQ           0.567 
##  2 B6          65 JFK    ABQ           0.433 
##  3 B6        1191 JFK    ACK           0.475 
##  4 B6        1491 JFK    ACK           0.414 
##  5 B6        1291 JFK    ACK           0.0898
##  6 B6        1195 JFK    ACK           0.0208
##  7 EV        4309 EWR    ALB           0.174 
##  8 EV        4271 EWR    ALB           0.137 
##  9 EV        4117 EWR    ALB           0.0951
## 10 EV        4088 EWR    ALB           0.0865
## # ... with 8,824 more rows
…
